/home/tommy/bin/EmployeeRestAPI/src/main/java/com/springboot/EmployeeRestAPI/EmployeeRestApiApplication.java
/home/tommy/bin/EmployeeRestAPI/src/main/java/com/springboot/EmployeeRestAPI/Model/Employee.java
/home/tommy/bin/EmployeeRestAPI/src/main/java/com/springboot/EmployeeRestAPI/Controller/EmployeeController.java
/home/tommy/bin/EmployeeRestAPI/src/main/java/com/springboot/EmployeeRestAPI/Repository/EmployeeRepository.java
